module gitlab.com/nharward/ghopac

go 1.12

require (
	github.com/google/go-github/v39 v39.0.0
	golang.org/x/oauth2 v0.0.0-20180821212333-d2e6202438be
	golang.org/x/sync v0.0.0-20190227155943-e225da77a7e6 // indirect
)
